<?xml version='1.0' encoding='UTF-8'?>
<!-- Created with Inkscape (http://www.inkscape.org/) and export_objects.py -->
<svg xmlns:cc="http://creativecommons.org/ns#" xmlns:dc="http://purl.org/dc/elements/1.1/" xmlns:inkscape="http://www.inkscape.org/namespaces/inkscape" xmlns:rdf="http://www.w3.org/1999/02/22-rdf-syntax-ns#" xmlns:sodipodi="http://sodipodi.sourceforge.net/DTD/sodipodi-0.dtd" xmlns:xlink="http://www.w3.org/1999/xlink" xmlns="http://www.w3.org/2000/svg" version="1.1" id="svg1" width="16" height="16" viewBox="0 0 16 16" sodipodi:docname="transform-skew-vertical-symbolic.svg"><sodipodi:namedview objecttolerance="10" gridtolerance="10" guidetolerance="10" id="namedview" showgrid="true" inkscape:zoom="0.6002936" inkscape:cx="732.67439" inkscape:cy="-567.94603" inkscape:window-width="1920" inkscape:window-height="1016" inkscape:window-x="0" inkscape:window-y="27" inkscape:window-maximized="1" inkscape:current-layer="layer1">
    <inkscape:grid type="xygrid" id="grid"/>
  </sodipodi:namedview>
  <g transform="matrix(1,0,0,0.999999,-529,-712.36129)" id="transform-skew-vertical" inkscape:label="00243">
      <path inkscape:connector-curvature="0" id="rect19383" d="m 529,712.36218 h 16 v 16 h -16 z" style="opacity:0;fill:none"/>
      <path id="path19386" d="m 539,722.3622 h 2 v 6 h 2 v -6 h 2 l -3,-4 z" style="opacity:1" inkscape:connector-curvature="0"/>
      <path inkscape:connector-curvature="0" id="path19388" d="m 529,721.3622 v 7 h 7 v -7 z" style="opacity:0.5"/>
      <path inkscape:connector-curvature="0" id="path19390" d="m 539,712.3622 -10,9 v 7 l 10,-8.2188 z" style="opacity:1"/>
    </g>
    </svg>
